44731
90749
17987
36212
72769
72412
73115
63339
90600
45809
73523
81470
81247
90508
54269
72688
72489
71648
81376
63552
90846
71694
90303
91404
54535
90712
72693
45689
91114
17938
63238
72394
90423
72416
45564
63424
72400
45277
72256
44992
90633
45073
90445
90461
